%YAML 1.1
%TAG !u! tag:unity3d.com,2011:
--- !u!1001 &4195528144901809580
PrefabInstance:
  m_ObjectHideFlags: 0
  serializedVersion: 2
  m_Modification:
    m_TransformParent: {fileID: 0}
    m_Modifications:
    - target: {fileID: -4868856568179653815, guid: 34ab62d984c3f294f9b56b54e4acbeb8, type: 3}
      propertyPath: noCollisionVertexes.Array.data[0]
      value: 
      objectReference: {fileID: 7321718445152800797}
    - target: {fileID: -4868856568179653815, guid: 34ab62d984c3f294f9b56b54e4acbeb8, type: 3}
      propertyPath: noCollisionVertexes.Array.data[1]
      value: 
      objectReference: {fileID: 628661340498463467}
    - target: {fileID: -4868856568179653815, guid: 34ab62d984c3f294f9b56b54e4acbeb8, type: 3}
      propertyPath: eventDie.m_PersistentCalls.m_Calls.Array.data[0].m_Target
      value: 
      objectReference: {fileID: 0}
    - target: {fileID: -4868856568179653815, guid: 34ab62d984c3f294f9b56b54e4acbeb8, type: 3}
      propertyPath: eventDie.m_PersistentCalls.m_Calls.Array.data[0].m_MethodName
      value: GameOver
      objectReference: {fileID: 0}
    - target: {fileID: -4868856568179653815, guid: 34ab62d984c3f294f9b56b54e4acbeb8, type: 3}
      propertyPath: eventDie.m_PersistentCalls.m_Calls.Array.data[0].m_TargetAssemblyTypeName
      value: SceneManager, Assembly-CSharp
      objectReference: {fileID: 0}
    - target: {fileID: -4868856568179653815, guid: 34ab62d984c3f294f9b56b54e4acbeb8, type: 3}
      propertyPath: eventDie.m_PersistentCalls.m_Calls.Array.data[0].m_Arguments.m_ObjectArgumentAssemblyTypeName
      value: UnityEngine.Object, UnityEngine
      objectReference: {fileID: 0}
    - target: {fileID: -1093229507546298313, guid: 34ab62d984c3f294f9b56b54e4acbeb8, type: 3}
      propertyPath: canSmash
      value: 1
      objectReference: {fileID: 0}
    - target: {fileID: -1093229507546298313, guid: 34ab62d984c3f294f9b56b54e4acbeb8, type: 3}
      propertyPath: jumpSoundEvent
      value: Player_Ian_Jump
      objectReference: {fileID: 0}
    - target: {fileID: -1093229507546298313, guid: 34ab62d984c3f294f9b56b54e4acbeb8, type: 3}
      propertyPath: deathSoundEvent
      value: Player_Ian_Death
      objectReference: {fileID: 0}
    - target: {fileID: -1093229507546298313, guid: 34ab62d984c3f294f9b56b54e4acbeb8, type: 3}
      propertyPath: usePickupButton
      value: 101
      objectReference: {fileID: 0}
    - target: {fileID: -1093229507546298313, guid: 34ab62d984c3f294f9b56b54e4acbeb8, type: 3}
      propertyPath: givePickupButton
      value: 115
      objectReference: {fileID: 0}
    - target: {fileID: -1093229507546298313, guid: 34ab62d984c3f294f9b56b54e4acbeb8, type: 3}
      propertyPath: pickupSoundEvent
      value: Player_Ian_Pickup
      objectReference: {fileID: 0}
    - target: {fileID: -1093229507546298313, guid: 34ab62d984c3f294f9b56b54e4acbeb8, type: 3}
      propertyPath: verticalJumpSpeed
      value: 10
      objectReference: {fileID: 0}
    - target: {fileID: -1093229507546298313, guid: 34ab62d984c3f294f9b56b54e4acbeb8, type: 3}
      propertyPath: distanceBufferingThreshold
      value: 1.5
      objectReference: {fileID: 0}
    - target: {fileID: 465950979374074498, guid: 34ab62d984c3f294f9b56b54e4acbeb8, type: 3}
      propertyPath: m_RootOrder
      value: 0
      objectReference: {fileID: 0}
    - target: {fileID: 465950979374074498, guid: 34ab62d984c3f294f9b56b54e4acbeb8, type: 3}
      propertyPath: m_LocalScale.x
      value: 1
      objectReference: {fileID: 0}
    - target: {fileID: 465950979374074498, guid: 34ab62d984c3f294f9b56b54e4acbeb8, type: 3}
      propertyPath: m_LocalScale.y
      value: 1
      objectReference: {fileID: 0}
    - target: {fileID: 465950979374074498, guid: 34ab62d984c3f294f9b56b54e4acbeb8, type: 3}
      propertyPath: m_LocalPosition.x
      value: -16
      objectReference: {fileID: 0}
    - target: {fileID: 465950979374074498, guid: 34ab62d984c3f294f9b56b54e4acbeb8, type: 3}
      propertyPath: m_LocalPosition.y
      value: 1.258
      objectReference: {fileID: 0}
    - target: {fileID: 465950979374074498, guid: 34ab62d984c3f294f9b56b54e4acbeb8, type: 3}
      propertyPath: m_LocalPosition.z
      value: 0
      objectReference: {fileID: 0}
    - target: {fileID: 465950979374074498, guid: 34ab62d984c3f294f9b56b54e4acbeb8, type: 3}
      propertyPath: m_LocalRotation.w
      value: 1
      objectReference: {fileID: 0}
    - target: {fileID: 465950979374074498, guid: 34ab62d984c3f294f9b56b54e4acbeb8, type: 3}
      propertyPath: m_LocalRotation.x
      value: 0
      objectReference: {fileID: 0}
    - target: {fileID: 465950979374074498, guid: 34ab62d984c3f294f9b56b54e4acbeb8, type: 3}
      propertyPath: m_LocalRotation.y
      value: 0
      objectReference: {fileID: 0}
    - target: {fileID: 465950979374074498, guid: 34ab62d984c3f294f9b56b54e4acbeb8, type: 3}
      propertyPath: m_LocalRotation.z
      value: 0
      objectReference: {fileID: 0}
    - target: {fileID: 465950979374074498, guid: 34ab62d984c3f294f9b56b54e4acbeb8, type: 3}
      propertyPath: m_LocalEulerAnglesHint.x
      value: 0
      objectReference: {fileID: 0}
    - target: {fileID: 465950979374074498, guid: 34ab62d984c3f294f9b56b54e4acbeb8, type: 3}
      propertyPath: m_LocalEulerAnglesHint.y
      value: 0
      objectReference: {fileID: 0}
    - target: {fileID: 465950979374074498, guid: 34ab62d984c3f294f9b56b54e4acbeb8, type: 3}
      propertyPath: m_LocalEulerAnglesHint.z
      value: 0
      objectReference: {fileID: 0}
    - target: {fileID: 465950979374074499, guid: 34ab62d984c3f294f9b56b54e4acbeb8, type: 3}
      propertyPath: m_Size.x
      value: 2.12
      objectReference: {fileID: 0}
    - target: {fileID: 465950979374074499, guid: 34ab62d984c3f294f9b56b54e4acbeb8, type: 3}
      propertyPath: m_Size.y
      value: 2.12
      objectReference: {fileID: 0}
    - target: {fileID: 465950979374074499, guid: 34ab62d984c3f294f9b56b54e4acbeb8, type: 3}
      propertyPath: m_Sprite
      value: 
      objectReference: {fileID: -8708002033623819516, guid: 7b4c6911d004c66439e8f01e23105536, type: 3}
    - target: {fileID: 465950979374074499, guid: 34ab62d984c3f294f9b56b54e4acbeb8, type: 3}
      propertyPath: m_Color.b
      value: 1
      objectReference: {fileID: 0}
    - target: {fileID: 465950979374074499, guid: 34ab62d984c3f294f9b56b54e4acbeb8, type: 3}
      propertyPath: m_Color.g
      value: 1
      objectReference: {fileID: 0}
    - target: {fileID: 465950979374074499, guid: 34ab62d984c3f294f9b56b54e4acbeb8, type: 3}
      propertyPath: m_Color.r
      value: 1
      objectReference: {fileID: 0}
    - target: {fileID: 465950979374074620, guid: 34ab62d984c3f294f9b56b54e4acbeb8, type: 3}
      propertyPath: m_GravityScale
      value: 2
      objectReference: {fileID: 0}
    - target: {fileID: 465950979374074621, guid: 34ab62d984c3f294f9b56b54e4acbeb8, type: 3}
      propertyPath: m_Name
      value: BlackCharacter
      objectReference: {fileID: 0}
    - target: {fileID: 465950979374074621, guid: 34ab62d984c3f294f9b56b54e4acbeb8, type: 3}
      propertyPath: m_Layer
      value: 8
      objectReference: {fileID: 0}
    - target: {fileID: 7883143431016938587, guid: 34ab62d984c3f294f9b56b54e4acbeb8, type: 3}
      propertyPath: m_Size.x
      value: 0.9961276
      objectReference: {fileID: 0}
    - target: {fileID: 7883143431016938587, guid: 34ab62d984c3f294f9b56b54e4acbeb8, type: 3}
      propertyPath: m_Size.y
      value: 1.9205594
      objectReference: {fileID: 0}
    - target: {fileID: 7883143431016938587, guid: 34ab62d984c3f294f9b56b54e4acbeb8, type: 3}
      propertyPath: m_Offset.x
      value: 0.030356944
      objectReference: {fileID: 0}
    - target: {fileID: 7883143431016938587, guid: 34ab62d984c3f294f9b56b54e4acbeb8, type: 3}
      propertyPath: m_Offset.y
      value: -0.10137153
      objectReference: {fileID: 0}
    - target: {fileID: 7883143431016938587, guid: 34ab62d984c3f294f9b56b54e4acbeb8, type: 3}
      propertyPath: m_SpriteTilingProperty.newSize.x
      value: 2.12
      objectReference: {fileID: 0}
    - target: {fileID: 7883143431016938587, guid: 34ab62d984c3f294f9b56b54e4acbeb8, type: 3}
      propertyPath: m_SpriteTilingProperty.newSize.y
      value: 2.12
      objectReference: {fileID: 0}
    - target: {fileID: 7883143431016938587, guid: 34ab62d984c3f294f9b56b54e4acbeb8, type: 3}
      propertyPath: m_SpriteTilingProperty.oldSize.x
      value: 2.12
      objectReference: {fileID: 0}
    - target: {fileID: 7883143431016938587, guid: 34ab62d984c3f294f9b56b54e4acbeb8, type: 3}
      propertyPath: m_SpriteTilingProperty.oldSize.y
      value: 2.12
      objectReference: {fileID: 0}
    m_RemovedComponents: []
  m_SourcePrefab: {fileID: 100100000, guid: 34ab62d984c3f294f9b56b54e4acbeb8, type: 3}
--- !u!1 &4345658544470683473 stripped
GameObject:
  m_CorrespondingSourceObject: {fileID: 465950979374074621, guid: 34ab62d984c3f294f9b56b54e4acbeb8, type: 3}
  m_PrefabInstance: {fileID: 4195528144901809580}
  m_PrefabAsset: {fileID: 0}
--- !u!4 &7321718445152800797 stripped
Transform:
  m_CorrespondingSourceObject: {fileID: 6891205329024234929, guid: 34ab62d984c3f294f9b56b54e4acbeb8, type: 3}
  m_PrefabInstance: {fileID: 4195528144901809580}
  m_PrefabAsset: {fileID: 0}
--- !u!4 &628661340498463467 stripped
Transform:
  m_CorrespondingSourceObject: {fileID: 3639179764728082247, guid: 34ab62d984c3f294f9b56b54e4acbeb8, type: 3}
  m_PrefabInstance: {fileID: 4195528144901809580}
  m_PrefabAsset: {fileID: 0}
--- !u!95 &1431531454
Animator:
  serializedVersion: 3
  m_ObjectHideFlags: 0
  m_CorrespondingSourceObject: {fileID: 0}
  m_PrefabInstance: {fileID: 0}
  m_PrefabAsset: {fileID: 0}
  m_GameObject: {fileID: 4345658544470683473}
  m_Enabled: 1
  m_Avatar: {fileID: 0}
  m_Controller: {fileID: 9100000, guid: 46121c1597a7cd94581b3f0115424404, type: 2}
  m_CullingMode: 0
  m_UpdateMode: 0
  m_ApplyRootMotion: 0
  m_LinearVelocityBlending: 0
  m_WarningMessage: 
  m_HasTransformHierarchy: 1
  m_AllowConstantClipSamplingOptimization: 1
  m_KeepAnimatorControllerStateOnDisable: 0
--- !u!114 &1876929192
MonoBehaviour:
  m_ObjectHideFlags: 0
  m_CorrespondingSourceObject: {fileID: 0}
  m_PrefabInstance: {fileID: 0}
  m_PrefabAsset: {fileID: 0}
  m_GameObject: {fileID: 4345658544470683473}
  m_Enabled: 1
  m_EditorHideFlags: 0
  m_Script: {fileID: 11500000, guid: 4eac2ba151a3e234ba6a902ded66717f, type: 3}
  m_Name: 
  m_EditorClassIdentifier: 
  characterLayerMask:
    serializedVersion: 2
    m_Bits: 256
  areInContactDistance: 1.5
