%YAML 1.1
%TAG !u! tag:unity3d.com,2011:
--- !u!1001 &2132836084364805675
PrefabInstance:
  m_ObjectHideFlags: 0
  serializedVersion: 2
  m_Modification:
    m_TransformParent: {fileID: 0}
    m_Modifications:
    - target: {fileID: 1940916814186356230, guid: d28fa61c8683f494a8034f33620e63a2, type: 3}
      propertyPath: m_Name
      value: BlackFlyingCharacter Variant
      objectReference: {fileID: 0}
    - target: {fileID: 1940916814186356344, guid: d28fa61c8683f494a8034f33620e63a2, type: 3}
      propertyPath: m_Color.b
      value: 0.14150941
      objectReference: {fileID: 0}
    - target: {fileID: 1940916814186356344, guid: d28fa61c8683f494a8034f33620e63a2, type: 3}
      propertyPath: m_Color.g
      value: 0.14150941
      objectReference: {fileID: 0}
    - target: {fileID: 1940916814186356344, guid: d28fa61c8683f494a8034f33620e63a2, type: 3}
      propertyPath: m_Color.r
      value: 0.14150941
      objectReference: {fileID: 0}
    - target: {fileID: 1940916814186356345, guid: d28fa61c8683f494a8034f33620e63a2, type: 3}
      propertyPath: m_RootOrder
      value: 0
      objectReference: {fileID: 0}
    - target: {fileID: 1940916814186356345, guid: d28fa61c8683f494a8034f33620e63a2, type: 3}
      propertyPath: m_LocalPosition.x
      value: 0
      objectReference: {fileID: 0}
    - target: {fileID: 1940916814186356345, guid: d28fa61c8683f494a8034f33620e63a2, type: 3}
      propertyPath: m_LocalPosition.y
      value: 0
      objectReference: {fileID: 0}
    - target: {fileID: 1940916814186356345, guid: d28fa61c8683f494a8034f33620e63a2, type: 3}
      propertyPath: m_LocalPosition.z
      value: 0
      objectReference: {fileID: 0}
    - target: {fileID: 1940916814186356345, guid: d28fa61c8683f494a8034f33620e63a2, type: 3}
      propertyPath: m_LocalRotation.w
      value: 1
      objectReference: {fileID: 0}
    - target: {fileID: 1940916814186356345, guid: d28fa61c8683f494a8034f33620e63a2, type: 3}
      propertyPath: m_LocalRotation.x
      value: 0
      objectReference: {fileID: 0}
    - target: {fileID: 1940916814186356345, guid: d28fa61c8683f494a8034f33620e63a2, type: 3}
      propertyPath: m_LocalRotation.y
      value: 0
      objectReference: {fileID: 0}
    - target: {fileID: 1940916814186356345, guid: d28fa61c8683f494a8034f33620e63a2, type: 3}
      propertyPath: m_LocalRotation.z
      value: 0
      objectReference: {fileID: 0}
    - target: {fileID: 1940916814186356345, guid: d28fa61c8683f494a8034f33620e63a2, type: 3}
      propertyPath: m_LocalEulerAnglesHint.x
      value: 0
      objectReference: {fileID: 0}
    - target: {fileID: 1940916814186356345, guid: d28fa61c8683f494a8034f33620e63a2, type: 3}
      propertyPath: m_LocalEulerAnglesHint.y
      value: 0
      objectReference: {fileID: 0}
    - target: {fileID: 1940916814186356345, guid: d28fa61c8683f494a8034f33620e63a2, type: 3}
      propertyPath: m_LocalEulerAnglesHint.z
      value: 0
      objectReference: {fileID: 0}
    m_RemovedComponents: []
  m_SourcePrefab: {fileID: 100100000, guid: d28fa61c8683f494a8034f33620e63a2, type: 3}
